#Command: "H:\Visual Studio 2010\Projects\BailiffAllocation\BailiffAllocation\bin\Debug\BailiffAllocation.vshost.exe" 
^H:\VISUAL STUDIO 2010\PROJECTS\BAILIFFALLOCATION\BAILIFFALLOCATION\DIABAILIFF.RESX|H:\VISUAL STUDIO 2010\PROJECTS\BAILIFFALLOCATION\BAILIFFALLOCATION\DIACASEDETAIL.RESX|H:\VISUAL STUDIO 2010\PROJECTS\BAILIFFALLOCATION\BAILIFFALLOCATION\DIACLIENTALLOCATIONLEVELS.RESX|H:\VISUAL STUDIO 2010\PROJECTS\BAILIFFALLOCATION\BAILIFFALLOCATION\FRMBAILIFFSUMMARY.RESX|H:\VISUAL STUDIO 2010\PROJECTS\BAILIFFALLOCATION\BAILIFFALLOCATION\FRMCASESUMMARY.RESX|H:\VISUAL STUDIO 2010\PROJECTS\BAILIFFALLOCATION\BAILIFFALLOCATION\FRMMAP.RESX|H:\VISUAL STUDIO 2010\PROJECTS\BAILIFFALLOCATION\BAILIFFALLOCATION\MY PROJECT\RESOURCES.RESX
C:\WINDOWS\MICROSOFT.NET\FRAMEWORK\V4.0.30319\CONFIG\MACHINE.CONFIG
H:\VISUAL STUDIO 2010\PROJECTS\BAILIFFALLOCATION\BAILIFFALLOCATION\BIN\DEBUG\BAILIFFALLOCATION.VSHOST.EXE.CONFIG
C:\WINDOWS\WINDOWSSHELL.MANIFEST
C:\WINDOWS\MICROSOFT.NET\ASSEMBLY\GAC_32\SYSTEM.TRANSACTIONS\V4.0_4.0.0.0__B77A5C561934E089\SYSTEM.TRANSACTIONS.DLL
C:\WINDOWS\MICROSOFT.NET\ASSEMBLY\GAC_32\SYSTEM.ENTERPRISESERVICES\V4.0_4.0.0.0__B03F5F7F11D50A3A\SYSTEM.ENTERPRISESERVICES.WRAPPER.DLL
C:\WINDOWS\SYSTEM32\DSSENH.DLL
C:\WINDOWS\FONTS\MICROSS.TTF
C:\WINDOWS\FONTS\TAHOMA.TTF
C:\WINDOWS\FONTS\TAHOMABD.TTF
C:\WINDOWS\FONTS\MICROSS.TTF
C:\DOCUMENTS AND SETTINGS\TSTEER\LOCAL SETTINGS\TEMP\B21EC0E4A2BB483A91D695630B64623D.RSP
