^X:\SOFTWARE DEVELOPMENT (.NET VS2010)\CARLISLEHBOPPREPROCESS\CARLISLEHBOPPREPROCESS\ERRORS.RESX
^X:\SOFTWARE DEVELOPMENT (.NET VS2010)\CARLISLEHBOPPREPROCESS\CARLISLEHBOPPREPROCESS\MAIN.RESX
^X:\SOFTWARE DEVELOPMENT (.NET VS2010)\CARLISLEHBOPPREPROCESS\CARLISLEHBOPPREPROCESS\MY PROJECT\RESOURCES.RESX
