^X:\SOFTWARE DEVELOPMENT (.NET VS2010)\BAILIFFBONUSFOREMPLOYED\BAILIFFBONUSFOREMPLOYED\FORM1.RESX|X:\SOFTWARE DEVELOPMENT (.NET VS2010)\BAILIFFBONUSFOREMPLOYED\BAILIFFBONUSFOREMPLOYED\MY PROJECT\RESOURCES.RESX
X:\SOFTWARE DEVELOPMENT (.NET VS2010)\BAILIFFBONUSFOREMPLOYED\BAILIFFBONUSFOREMPLOYED\OBJ\X86\DEBUG\BAILIFFBONUSFOREMPLOYED.FORM1.RESOURCES
X:\SOFTWARE DEVELOPMENT (.NET VS2010)\BAILIFFBONUSFOREMPLOYED\BAILIFFBONUSFOREMPLOYED\OBJ\X86\DEBUG\BAILIFFBONUSFOREMPLOYED.RESOURCES.RESOURCES
