^X:\SOFTWARE DEVELOPMENT (.NET VS2010)\LAACRYSTALREPORTS\LAACRYSTALREPORTS\FORM1.RESX
^X:\SOFTWARE DEVELOPMENT (.NET VS2010)\LAACRYSTALREPORTS\LAACRYSTALREPORTS\MY PROJECT\RESOURCES.RESX
C:\WINDOWS\MICROSOFT.NET\FRAMEWORK\V2.0.50727\CONFIG\SECURITY.CONFIG
C:\WINDOWS\MICROSOFT.NET\FRAMEWORK\V2.0.50727\CONFIG\ENTERPRISESEC.CONFIG
