^X:\SOFTWARE DEVELOPMENT (.NET VS2010)\SEGMENTNAMELOAD\SEGMENTNAMELOAD\FORM1.RESX|X:\SOFTWARE DEVELOPMENT (.NET VS2010)\SEGMENTNAMELOAD\SEGMENTNAMELOAD\MY PROJECT\RESOURCES.RESX
X:\SOFTWARE DEVELOPMENT (.NET VS2010)\SEGMENTNAMELOAD\SEGMENTNAMELOAD\OBJ\X86\DEBUG\SEGMENTNAMELOAD.FORM1.RESOURCES
X:\SOFTWARE DEVELOPMENT (.NET VS2010)\SEGMENTNAMELOAD\SEGMENTNAMELOAD\OBJ\X86\DEBUG\SEGMENTNAMELOAD.RESOURCES.RESOURCES
