^X:\SOFTWARE DEVELOPMENT (.NET VS2010)\UNITEDUTILITIESRETURNS\UNITEDUTILITIESRETURNS\FRMMAIN.RESX|X:\SOFTWARE DEVELOPMENT (.NET VS2010)\UNITEDUTILITIESRETURNS\UNITEDUTILITIESRETURNS\MY PROJECT\RESOURCES.RESX
X:\SOFTWARE DEVELOPMENT (.NET VS2010)\UNITEDUTILITIESRETURNS\UNITEDUTILITIESRETURNS\OBJ\X86\DEBUG\UNITEDUTILITIESRETURNS.FRMMAIN.RESOURCES
X:\SOFTWARE DEVELOPMENT (.NET VS2010)\UNITEDUTILITIESRETURNS\UNITEDUTILITIESRETURNS\OBJ\X86\DEBUG\UNITEDUTILITIESRETURNS.RESOURCES.RESOURCES
^X:\SOFTWARE DEVELOPMENT (.NET VS2010)\UNITEDUTILITIESRETURNS\UNITEDUTILITIESRETURNS\FRMMAIN.RESX|X:\SOFTWARE DEVELOPMENT (.NET VS2010)\UNITEDUTILITIESRETURNS\UNITEDUTILITIESRETURNS\FRMSPLASHSCREEN.RESX|X:\SOFTWARE DEVELOPMENT (.NET VS2010)\UNITEDUTILITIESRETURNS\UNITEDUTILITIESRETURNS\MY PROJECT\RESOURCES.RESX
X:\SOFTWARE DEVELOPMENT (.NET VS2010)\UNITEDUTILITIESRETURNS\UNITEDUTILITIESRETURNS\OBJ\X86\DEBUG\UNITEDUTILITIESRETURNS.FRMMAIN.RESOURCES
X:\SOFTWARE DEVELOPMENT (.NET VS2010)\UNITEDUTILITIESRETURNS\UNITEDUTILITIESRETURNS\OBJ\X86\DEBUG\UNITEDUTILITIESRETURNS.FRMSPLASHSCREEN.RESOURCES
X:\SOFTWARE DEVELOPMENT (.NET VS2010)\UNITEDUTILITIESRETURNS\UNITEDUTILITIESRETURNS\OBJ\X86\DEBUG\UNITEDUTILITIESRETURNS.RESOURCES.RESOURCES
