#Command: "c:\Program Files\Microsoft Visual Studio 10.0\Common7\IDE\devenv.exe" "H:\Visual Studio 2010\Projects\BailiffAllocation\BailiffAllocation.sln"
^H:\VISUAL STUDIO 2010\PROJECTS\BAILIFFALLOCATION\BAILIFFALLOCATION\DIABAILIFF.RESX|H:\VISUAL STUDIO 2010\PROJECTS\BAILIFFALLOCATION\BAILIFFALLOCATION\DIACASEDETAIL.RESX|H:\VISUAL STUDIO 2010\PROJECTS\BAILIFFALLOCATION\BAILIFFALLOCATION\DIACLIENTALLOCATIONLEVELS.RESX|H:\VISUAL STUDIO 2010\PROJECTS\BAILIFFALLOCATION\BAILIFFALLOCATION\FRMBAILIFFSUMMARY.RESX|H:\VISUAL STUDIO 2010\PROJECTS\BAILIFFALLOCATION\BAILIFFALLOCATION\FRMCASESUMMARY.RESX|H:\VISUAL STUDIO 2010\PROJECTS\BAILIFFALLOCATION\BAILIFFALLOCATION\FRMMAP.RESX|H:\VISUAL STUDIO 2010\PROJECTS\BAILIFFALLOCATION\BAILIFFALLOCATION\FRMSPLASHSCREEN.RESX|H:\VISUAL STUDIO 2010\PROJECTS\BAILIFFALLOCATION\BAILIFFALLOCATION\MY PROJECT\RESOURCES.RESX
C:\WINDOWS\MICROSOFT.NET\ASSEMBLY\GAC_32\SYSTEM.ENTERPRISESERVICES\V4.0_4.0.0.0__B03F5F7F11D50A3A\SYSTEM.ENTERPRISESERVICES.WRAPPER.DLL
C:\DOCUMENTS AND SETTINGS\TSTEER\LOCAL SETTINGS\TEMP\4E2A052980994C5A87A75C6F90D39F99.RSP
