^X:\SOFTWARE DEVELOPMENT (.NET VS2010)\TDX-DMI-HOMEOFFICEPREPROCESS\TDX-DMI-HOMEOFFICEPREPROCESS\FRMMAIN.RESX
^X:\SOFTWARE DEVELOPMENT (.NET VS2010)\TDX-DMI-HOMEOFFICEPREPROCESS\TDX-DMI-HOMEOFFICEPREPROCESS\FRMSPLASHSCREEN.RESX
^X:\SOFTWARE DEVELOPMENT (.NET VS2010)\TDX-DMI-HOMEOFFICEPREPROCESS\TDX-DMI-HOMEOFFICEPREPROCESS\MY PROJECT\RESOURCES.RESX
C:\WINDOWS\MICROSOFT.NET\FRAMEWORK\V2.0.50727\CONFIG\SECURITY.CONFIG
C:\WINDOWS\MICROSOFT.NET\FRAMEWORK\V2.0.50727\CONFIG\ENTERPRISESEC.CONFIG
