^C:\DOCUMENTS AND SETTINGS\TSTEER\LOCAL SETTINGS\APPLICATION DATA\TEMPORARY PROJECTS\UNITEDUTILITIESPREPROCESS\FRMMAIN.RESX|C:\DOCUMENTS AND SETTINGS\TSTEER\LOCAL SETTINGS\APPLICATION DATA\TEMPORARY PROJECTS\UNITEDUTILITIESPREPROCESS\MY PROJECT\RESOURCES.RESX
^X:\SOFTWARE DEVELOPMENT (.NET VS2010)\UNITEDUTILITIESPREPROCESS\UNITEDUTILITIESPREPROCESS\FRMMAIN.RESX|X:\SOFTWARE DEVELOPMENT (.NET VS2010)\UNITEDUTILITIESPREPROCESS\UNITEDUTILITIESPREPROCESS\MY PROJECT\RESOURCES.RESX
X:\SOFTWARE DEVELOPMENT (.NET VS2010)\UNITEDUTILITIESPREPROCESS\UNITEDUTILITIESPREPROCESS\OBJ\X86\DEBUG\UNITEDUTILITIESPREPROCESS.FRMMAIN.RESOURCES
X:\SOFTWARE DEVELOPMENT (.NET VS2010)\UNITEDUTILITIESPREPROCESS\UNITEDUTILITIESPREPROCESS\OBJ\X86\DEBUG\UNITEDUTILITIESPREPROCESS.RESOURCES.RESOURCES
^X:\SOFTWARE DEVELOPMENT (.NET VS2010)\UNITEDUTILITIESPREPROCESS\UNITEDUTILITIESPREPROCESS\FRMMAIN.RESX|X:\SOFTWARE DEVELOPMENT (.NET VS2010)\UNITEDUTILITIESPREPROCESS\UNITEDUTILITIESPREPROCESS\FRMSPLASHSCREEN.RESX|X:\SOFTWARE DEVELOPMENT (.NET VS2010)\UNITEDUTILITIESPREPROCESS\UNITEDUTILITIESPREPROCESS\MY PROJECT\RESOURCES.RESX
X:\SOFTWARE DEVELOPMENT (.NET VS2010)\UNITEDUTILITIESPREPROCESS\UNITEDUTILITIESPREPROCESS\OBJ\X86\DEBUG\UNITEDUTILITIESPREPROCESS.FRMMAIN.RESOURCES
X:\SOFTWARE DEVELOPMENT (.NET VS2010)\UNITEDUTILITIESPREPROCESS\UNITEDUTILITIESPREPROCESS\OBJ\X86\DEBUG\UNITEDUTILITIESPREPROCESS.FRMSPLASHSCREEN.RESOURCES
X:\SOFTWARE DEVELOPMENT (.NET VS2010)\UNITEDUTILITIESPREPROCESS\UNITEDUTILITIESPREPROCESS\OBJ\X86\DEBUG\UNITEDUTILITIESPREPROCESS.RESOURCES.RESOURCES
