^X:\SOFTWARE DEVELOPMENT (.NET VS2010)\RUTLANDPREPROCESS\RUTLANDPREPROCESS\ERRORS.RESX
^X:\SOFTWARE DEVELOPMENT (.NET VS2010)\RUTLANDPREPROCESS\RUTLANDPREPROCESS\MAINTAIN.RESX
^X:\SOFTWARE DEVELOPMENT (.NET VS2010)\RUTLANDPREPROCESS\RUTLANDPREPROCESS\MY PROJECT\RESOURCES.RESX
^X:\SOFTWARE DEVELOPMENT (.NET VS2010)\RUTLANDPREPROCESS\RUTLANDPREPROCESS\TEXTFRM.RESX
^X:\SOFTWARE DEVELOPMENT (.NET VS2010)\RUTLANDPREPROCESS\RUTLANDPREPROCESS\VIEW.RESX
^X:\SOFTWARE DEVELOPMENT (.NET VS2010)\RUTLANDPREPROCESS\RUTLANDPREPROCESS\MAIN.RESX
