^X:\SOFTWARE DEVELOPMENT (.NET VS2010)\BAILRETURNFILE\BAILRETURNFILE\MAINFRM.RESX
^X:\SOFTWARE DEVELOPMENT (.NET VS2010)\BAILRETURNFILE\BAILRETURNFILE\MY PROJECT\RESOURCES.RESX
^X:\SOFTWARE DEVELOPMENT (.NET VS2010)\BAILRETURNFILE\BAILRETURNFILE\SCHEMEFRM.RESX
