#Command: "c:\Program Files\Microsoft Visual Studio 10.0\Common7\IDE\devenv.exe" "H:\Visual Studio 2010\Projects\BailiffAllocation\BailiffAllocation.sln"
^H:\VISUAL STUDIO 2010\PROJECTS\BAILIFFALLOCATION\BAILIFFALLOCATION\DIABAILIFF.RESX|H:\VISUAL STUDIO 2010\PROJECTS\BAILIFFALLOCATION\BAILIFFALLOCATION\DIACASEDETAIL.RESX|H:\VISUAL STUDIO 2010\PROJECTS\BAILIFFALLOCATION\BAILIFFALLOCATION\DIACLIENTALLOCATIONLEVELS.RESX|H:\VISUAL STUDIO 2010\PROJECTS\BAILIFFALLOCATION\BAILIFFALLOCATION\FRMBAILIFFSUMMARY.RESX|H:\VISUAL STUDIO 2010\PROJECTS\BAILIFFALLOCATION\BAILIFFALLOCATION\FRMCASESUMMARY.RESX|H:\VISUAL STUDIO 2010\PROJECTS\BAILIFFALLOCATION\BAILIFFALLOCATION\FRMMAP.RESX|H:\VISUAL STUDIO 2010\PROJECTS\BAILIFFALLOCATION\BAILIFFALLOCATION\FRMSPLASHSCREEN.RESX|H:\VISUAL STUDIO 2010\PROJECTS\BAILIFFALLOCATION\BAILIFFALLOCATION\MY PROJECT\RESOURCES.RESX
C:\WINDOWS\ASSEMBLY\NATIVEIMAGES_V4.0.30319_32\MSCORLIB\60C214B6AD5691E368A16EC65D127C27\MSCORLIB.NI.DLL
C:\WINDOWS\ASSEMBLY\GAC_MSIL\MICROSOFT.VISUALSTUDIO.HOSTINGPROCESS.UTILITIES\10.0.0.0__B03F5F7F11D50A3A\MICROSOFT.VISUALSTUDIO.HOSTINGPROCESS.UTILITIES.DLL
C:\WINDOWS\ASSEMBLY\NATIVEIMAGES_V4.0.30319_32\SYSTEM.WINDOWS.FORMS\B2C0F91D4817A23F3FD07CD05EBD8E89\SYSTEM.WINDOWS.FORMS.NI.DLL
C:\WINDOWS\ASSEMBLY\NATIVEIMAGES_V4.0.30319_32\SYSTEM.DRAWING\B83993CC955262507C8EAD67567C8060\SYSTEM.DRAWING.NI.DLL
C:\WINDOWS\ASSEMBLY\NATIVEIMAGES_V4.0.30319_32\SYSTEM\DF418085CEDAE9FA2EFEE87E20A419A4\SYSTEM.NI.DLL
C:\WINDOWS\ASSEMBLY\GAC_MSIL\MICROSOFT.VISUALSTUDIO.HOSTINGPROCESS.UTILITIES.SYNC\10.0.0.0__B03F5F7F11D50A3A\MICROSOFT.VISUALSTUDIO.HOSTINGPROCESS.UTILITIES.SYNC.DLL
C:\WINDOWS\ASSEMBLY\GAC_MSIL\MICROSOFT.VISUALSTUDIO.DEBUGGER.RUNTIME\10.0.0.0__B03F5F7F11D50A3A\MICROSOFT.VISUALSTUDIO.DEBUGGER.RUNTIME.DLL
H:\VISUAL STUDIO 2010\PROJECTS\BAILIFFALLOCATION\BAILIFFALLOCATION\BIN\DEBUG\BAILIFFALLOCATION.VSHOST.EXE
C:\WINDOWS\ASSEMBLY\NATIVEIMAGES_V4.0.30319_32\SYSTEM.CONFIGURATION\11DFBB7DF959CB6DD5B57816141DE355\SYSTEM.CONFIGURATION.NI.DLL
C:\WINDOWS\ASSEMBLY\NATIVEIMAGES_V4.0.30319_32\SYSTEM.DATA\1706FEB33C6A761866B77C21583341D1\SYSTEM.DATA.NI.DLL
C:\WINDOWS\ASSEMBLY\NATIVEIMAGES_V4.0.30319_32\SYSTEM.CORE\D5EB9579D1850678612625AB995629EA\SYSTEM.CORE.NI.DLL
C:\WINDOWS\ASSEMBLY\NATIVEIMAGES_V4.0.30319_32\SYSTEM.DEPLOYMENT\90F2BE3782B5F0771CA8A21915BC8F58\SYSTEM.DEPLOYMENT.NI.DLL
C:\WINDOWS\ASSEMBLY\NATIVEIMAGES_V4.0.30319_32\SYSTEM.XML\D884C684EE3F738A60E3C50DD5D88CAA\SYSTEM.XML.NI.DLL
C:\WINDOWS\ASSEMBLY\NATIVEIMAGES_V4.0.30319_32\SYSTEM.XML.LINQ\CDBFC30D390F21435CCE3B16B001AE76\SYSTEM.XML.LINQ.NI.DLL
C:\WINDOWS\ASSEMBLY\NATIVEIMAGES_V4.0.30319_32\SYSTEM.DATA.DATASET#\232E0C268D45CAC7BBE19C423E8E10BB\SYSTEM.DATA.DATASETEXTENSIONS.NI.DLL
C:\WINDOWS\ASSEMBLY\NATIVEIMAGES_V4.0.30319_32\MICROSOFT.VISUALBAS#\8F4AF1868797D4FA1559AC07DEB2C63B\MICROSOFT.VISUALBASIC.NI.DLL
H:\VISUAL STUDIO 2010\PROJECTS\BAILIFFALLOCATION\BAILIFFALLOCATION\BIN\DEBUG\BAILIFFALLOCATION.EXE
H:\VISUAL STUDIO 2010\PROJECTS\BAILIFFALLOCATION\BAILIFFALLOCATION\BIN\DEBUG\BAILIFFALLOCATION.PDB
H:\VISUAL STUDIO 2010\PROJECTS\BAILIFFALLOCATION\BAILIFFALLOCATION\BIN\DEBUG\COMMONLIBRARY.DLL
H:\VISUAL STUDIO 2010\PROJECTS\BAILIFFALLOCATION\BAILIFFALLOCATION\BIN\DEBUG\COMMONLIBRARY.PDB
C:\WINDOWS\ASSEMBLY\NATIVEIMAGES_V4.0.30319_32\WINDOWSBASE\1EF813DBB9DBBCF483007ED4C42472C9\WINDOWSBASE.NI.DLL
C:\WINDOWS\ASSEMBLY\NATIVEIMAGES_V4.0.30319_32\SYSTEM.TRANSACTIONS\9253EB314EF2F5ADADA0D5FDF1D4A839\SYSTEM.TRANSACTIONS.NI.DLL
C:\WINDOWS\ASSEMBLY\NATIVEIMAGES_V4.0.30319_32\SYSTEM.ENTERPRISESE#\D340A103E8F063A3771CBEAAEC58D157\SYSTEM.ENTERPRISESERVICES.NI.DLL
C:\WINDOWS\ASSEMBLY\NATIVEIMAGES_V4.0.30319_32\SYSTEM.ENTERPRISESE#\D340A103E8F063A3771CBEAAEC58D157\SYSTEM.ENTERPRISESERVICES.WRAPPER.DLL
C:\WINDOWS\ASSEMBLY\NATIVEIMAGES_V4.0.30319_32\SYSTEM.NUMERICS\C41A7A0A68540E43D10389646E84E3D1\SYSTEM.NUMERICS.NI.DLL
C:\WINDOWS\ASSEMBLY\NATIVEIMAGES_V4.0.30319_32\ACCESSIBILITY\2BE03DD49BC35A9286858479E0433449\ACCESSIBILITY.NI.DLL
C:\WINDOWS\MICROSOFT.NET\ASSEMBLY\GAC_MSIL\ACCESSIBILITY\V4.0_4.0.0.0__B03F5F7F11D50A3A\ACCESSIBILITY.DLL
C:\DOCUMENTS AND SETTINGS\TSTEER\LOCAL SETTINGS\TEMP\4E2A052980994C5A87A75C6F90D39F99.RSP
