^X:\SOFTWARE DEVELOPMENT (.NET VS2010)\NOTTINGHAMPREPROCESS\NOTTINGHAMPREPROCESS\FRMMAIN.RESX|X:\SOFTWARE DEVELOPMENT (.NET VS2010)\NOTTINGHAMPREPROCESS\NOTTINGHAMPREPROCESS\FRMSPLASHSCREEN.RESX|X:\SOFTWARE DEVELOPMENT (.NET VS2010)\NOTTINGHAMPREPROCESS\NOTTINGHAMPREPROCESS\MY PROJECT\RESOURCES.RESX
X:\SOFTWARE DEVELOPMENT (.NET VS2010)\NOTTINGHAMPREPROCESS\NOTTINGHAMPREPROCESS\OBJ\X86\DEBUG\NOTTINGHAMPREPROCESS.FRMMAIN.RESOURCES
X:\SOFTWARE DEVELOPMENT (.NET VS2010)\NOTTINGHAMPREPROCESS\NOTTINGHAMPREPROCESS\OBJ\X86\DEBUG\NOTTINGHAMPREPROCESS.FRMSPLASHSCREEN.RESOURCES
X:\SOFTWARE DEVELOPMENT (.NET VS2010)\NOTTINGHAMPREPROCESS\NOTTINGHAMPREPROCESS\OBJ\X86\DEBUG\NOTTINGHAMPREPROCESS.RESOURCES.RESOURCES
