^X:\SOFTWARE DEVELOPMENT (.NET VS2010)\ICOTIFFRENAME\ICOTIFFRENAME\FORM1.RESX
^X:\SOFTWARE DEVELOPMENT (.NET VS2010)\ICOTIFFRENAME\ICOTIFFRENAME\FRMSPLASHSCREEN.RESX
C:\WINDOWS\ASSEMBLY\PUBPOL16.DAT
C:\WINDOWS\MICROSOFT.NET\ASSEMBLY\GAC_MSIL\MICROSOFT.BUILD.TASKS.V4.0\V4.0_4.0.0.0__B03F5F7F11D50A3A\MICROSOFT.BUILD.TASKS.V4.0.DLL
^X:\SOFTWARE DEVELOPMENT (.NET VS2010)\ICOTIFFRENAME\ICOTIFFRENAME\MY PROJECT\RESOURCES.RESX
