^H:\VISUAL STUDIO 2010\PROJECTS\BAILIFFALLOCATION\BAILIFFALLOCATION\DIABAILIFF.RESX
^H:\VISUAL STUDIO 2010\PROJECTS\BAILIFFALLOCATION\BAILIFFALLOCATION\DIACASEDETAIL.RESX
^H:\VISUAL STUDIO 2010\PROJECTS\BAILIFFALLOCATION\BAILIFFALLOCATION\MY PROJECT\RESOURCES.RESX
^H:\VISUAL STUDIO 2010\PROJECTS\BAILIFFALLOCATION\BAILIFFALLOCATION\FRMBAILIFFSUMMARY.RESX
^Z:\VISUAL STUDIO 2010\PROJECTS\BAILIFFALLOCATION\BAILIFFALLOCATION\MY PROJECT\RESOURCES.RESX
^Z:\VISUAL STUDIO 2010\PROJECTS\BAILIFFALLOCATION\BAILIFFALLOCATION\DIABAILIFF.RESX
^Z:\VISUAL STUDIO 2010\PROJECTS\BAILIFFALLOCATION\BAILIFFALLOCATION\DIACASEDETAIL.RESX
^Z:\VISUAL STUDIO 2010\PROJECTS\BAILIFFALLOCATION\BAILIFFALLOCATION\FRMBAILIFFSUMMARY.RESX
^Z:\VISUAL STUDIO 2010\PROJECTS\BAILIFFALLOCATION\BAILIFFALLOCATION\FRMCASESUMMARY.RESX
^H:\VISUAL STUDIO 2010\PROJECTS\BAILIFFALLOCATION\BAILIFFALLOCATION\FRMCASESUMMARY.RESX
^H:\VISUAL STUDIO 2010\PROJECTS\BAILIFFALLOCATION\BAILIFFALLOCATION\FORM1.RESX
C:\WINDOWS\MICROSOFT.NET\FRAMEWORK\V2.0.50727\MSCORRC.DLL
C:\WINDOWS\ASSEMBLY\GAC_32\SYSTEM.DATA\2.0.0.0__B77A5C561934E089\SYSTEM.DATA.DLL
^H:\VISUAL STUDIO 2010\PROJECTS\BAILIFFALLOCATION\BAILIFFALLOCATION\FRMMAP.RESX
^\\ROSSVR02\SHARED\USERS\TSTEER\VISUAL STUDIO 2010\PROJECTS\BAILIFFALLOCATION\BAILIFFALLOCATION\DIABAILIFF.RESX
^\\ROSSVR02\SHARED\USERS\TSTEER\VISUAL STUDIO 2010\PROJECTS\BAILIFFALLOCATION\BAILIFFALLOCATION\DIACASEDETAIL.RESX
^\\ROSSVR02\SHARED\USERS\TSTEER\VISUAL STUDIO 2010\PROJECTS\BAILIFFALLOCATION\BAILIFFALLOCATION\FRMBAILIFFSUMMARY.RESX
^\\ROSSVR02\SHARED\USERS\TSTEER\VISUAL STUDIO 2010\PROJECTS\BAILIFFALLOCATION\BAILIFFALLOCATION\FRMCASESUMMARY.RESX
^\\ROSSVR02\SHARED\USERS\TSTEER\VISUAL STUDIO 2010\PROJECTS\BAILIFFALLOCATION\BAILIFFALLOCATION\FRMMAP.RESX
^\\ROSSVR02\SHARED\USERS\TSTEER\VISUAL STUDIO 2010\PROJECTS\BAILIFFALLOCATION\BAILIFFALLOCATION\MY PROJECT\RESOURCES.RESX
