^X:\SOFTWARE DEVELOPMENT (.NET VS2010)\UNITEDUTILITIESCOMMERCIALRETURNS\UNITEDUTILITIESCOMMERCIALRETURNS\FRMSPLASHSCREEN.RESX
^X:\SOFTWARE DEVELOPMENT (.NET VS2010)\UNITEDUTILITIESCOMMERCIALRETURNS\UNITEDUTILITIESCOMMERCIALRETURNS\MY PROJECT\RESOURCES.RESX
^X:\SOFTWARE DEVELOPMENT (.NET VS2010)\UNITEDUTILITIESCOMMERCIALRETURNS\UNITEDUTILITIESCOMMERCIALRETURNS\FRMMAIN.RESX
