^X:\SOFTWARE DEVELOPMENT (.NET VS2010)\EAVISITSYESTERDAY\EAVISITSYESTERDAY\FORM1.RESX|X:\SOFTWARE DEVELOPMENT (.NET VS2010)\EAVISITSYESTERDAY\EAVISITSYESTERDAY\MY PROJECT\RESOURCES.RESX
X:\SOFTWARE DEVELOPMENT (.NET VS2010)\EAVISITSYESTERDAY\EAVISITSYESTERDAY\OBJ\X86\RELEASE\EAVISITSYESTERDAY.FORM1.RESOURCES
X:\SOFTWARE DEVELOPMENT (.NET VS2010)\EAVISITSYESTERDAY\EAVISITSYESTERDAY\OBJ\X86\RELEASE\EAVISITSYESTERDAY.RESOURCES.RESOURCES
