#Command: "c:\Program Files\Microsoft Visual Studio 10.0\Common7\IDE\devenv.exe" "H:\Visual Studio 2010\Projects\BailiffAllocation\BailiffAllocation.sln"
^H:\VISUAL STUDIO 2010\PROJECTS\BAILIFFALLOCATION\BAILIFFALLOCATION\DIABAILIFF.RESX|H:\VISUAL STUDIO 2010\PROJECTS\BAILIFFALLOCATION\BAILIFFALLOCATION\DIACASEDETAIL.RESX|H:\VISUAL STUDIO 2010\PROJECTS\BAILIFFALLOCATION\BAILIFFALLOCATION\DIACLIENTALLOCATIONLEVELS.RESX|H:\VISUAL STUDIO 2010\PROJECTS\BAILIFFALLOCATION\BAILIFFALLOCATION\FRMBAILIFFSUMMARY.RESX|H:\VISUAL STUDIO 2010\PROJECTS\BAILIFFALLOCATION\BAILIFFALLOCATION\FRMCASESUMMARY.RESX|H:\VISUAL STUDIO 2010\PROJECTS\BAILIFFALLOCATION\BAILIFFALLOCATION\FRMMAP.RESX|H:\VISUAL STUDIO 2010\PROJECTS\BAILIFFALLOCATION\BAILIFFALLOCATION\MY PROJECT\RESOURCES.RESX
C:\WINDOWS\ASSEMBLY\NATIVEIMAGES_V4.0.30319_32\MSCORLIB\685F73E04393B5342BD1CEBE701496AD\MSCORLIB.NI.DLL
C:\WINDOWS\MICROSOFT.NET\ASSEMBLY\GAC_32\MSCORLIB\V4.0_4.0.0.0__B77A5C561934E089\MSCORLIB.DLL
C:\WINDOWS\ASSEMBLY\GAC_MSIL\MICROSOFT.VISUALSTUDIO.HOSTINGPROCESS.UTILITIES\10.0.0.0__B03F5F7F11D50A3A\MICROSOFT.VISUALSTUDIO.HOSTINGPROCESS.UTILITIES.DLL
C:\WINDOWS\ASSEMBLY\NATIVEIMAGES_V4.0.30319_32\SYSTEM.WINDOWS.FORMS\CCF3F783590B1747A3593B889BEDE2FB\SYSTEM.WINDOWS.FORMS.NI.DLL
C:\WINDOWS\MICROSOFT.NET\ASSEMBLY\GAC_MSIL\SYSTEM.WINDOWS.FORMS\V4.0_4.0.0.0__B77A5C561934E089\SYSTEM.WINDOWS.FORMS.DLL
C:\WINDOWS\ASSEMBLY\NATIVEIMAGES_V4.0.30319_32\SYSTEM.DRAWING\ED7768172BBF30462BC554DEE3911540\SYSTEM.DRAWING.NI.DLL
C:\WINDOWS\MICROSOFT.NET\ASSEMBLY\GAC_MSIL\SYSTEM.DRAWING\V4.0_4.0.0.0__B03F5F7F11D50A3A\SYSTEM.DRAWING.DLL
C:\WINDOWS\ASSEMBLY\NATIVEIMAGES_V4.0.30319_32\SYSTEM\0BC033FA805A31E31DC462CFAE365478\SYSTEM.NI.DLL
C:\WINDOWS\MICROSOFT.NET\ASSEMBLY\GAC_MSIL\SYSTEM\V4.0_4.0.0.0__B77A5C561934E089\SYSTEM.DLL
C:\WINDOWS\ASSEMBLY\GAC_MSIL\MICROSOFT.VISUALSTUDIO.HOSTINGPROCESS.UTILITIES.SYNC\10.0.0.0__B03F5F7F11D50A3A\MICROSOFT.VISUALSTUDIO.HOSTINGPROCESS.UTILITIES.SYNC.DLL
C:\WINDOWS\ASSEMBLY\GAC_MSIL\MICROSOFT.VISUALSTUDIO.DEBUGGER.RUNTIME\10.0.0.0__B03F5F7F11D50A3A\MICROSOFT.VISUALSTUDIO.DEBUGGER.RUNTIME.DLL
H:\VISUAL STUDIO 2010\PROJECTS\BAILIFFALLOCATION\BAILIFFALLOCATION\BIN\DEBUG\BAILIFFALLOCATION.VSHOST.EXE
C:\WINDOWS\ASSEMBLY\NATIVEIMAGES_V4.0.30319_32\SYSTEM.CONFIGURATION\C15C94B675BECB485D940F8F0068DC5D\SYSTEM.CONFIGURATION.NI.DLL
C:\WINDOWS\MICROSOFT.NET\ASSEMBLY\GAC_MSIL\SYSTEM.CONFIGURATION\V4.0_4.0.0.0__B03F5F7F11D50A3A\SYSTEM.CONFIGURATION.DLL
C:\WINDOWS\ASSEMBLY\NATIVEIMAGES_V4.0.30319_32\SYSTEM.DATA\D15F027A989100EA46B1DF0C050DDA17\SYSTEM.DATA.NI.DLL
C:\WINDOWS\MICROSOFT.NET\ASSEMBLY\GAC_32\SYSTEM.DATA\V4.0_4.0.0.0__B77A5C561934E089\SYSTEM.DATA.DLL
C:\WINDOWS\ASSEMBLY\NATIVEIMAGES_V4.0.30319_32\SYSTEM.CORE\A7CDF1CAEDEE630B8440FB8E8657ACA1\SYSTEM.CORE.NI.DLL
C:\WINDOWS\MICROSOFT.NET\ASSEMBLY\GAC_MSIL\SYSTEM.CORE\V4.0_4.0.0.0__B77A5C561934E089\SYSTEM.CORE.DLL
C:\WINDOWS\ASSEMBLY\NATIVEIMAGES_V4.0.30319_32\SYSTEM.DEPLOYMENT\D5C622D617FC34CA065B82128B8D68D1\SYSTEM.DEPLOYMENT.NI.DLL
C:\WINDOWS\MICROSOFT.NET\ASSEMBLY\GAC_MSIL\SYSTEM.DEPLOYMENT\V4.0_4.0.0.0__B03F5F7F11D50A3A\SYSTEM.DEPLOYMENT.DLL
C:\WINDOWS\ASSEMBLY\NATIVEIMAGES_V4.0.30319_32\SYSTEM.XML\06DB722A2DDEBD960D907C2DE6F1CFA7\SYSTEM.XML.NI.DLL
C:\WINDOWS\MICROSOFT.NET\ASSEMBLY\GAC_MSIL\SYSTEM.XML\V4.0_4.0.0.0__B77A5C561934E089\SYSTEM.XML.DLL
C:\WINDOWS\ASSEMBLY\NATIVEIMAGES_V4.0.30319_32\SYSTEM.XML.LINQ\2AC9ED65E7A7CCFCC1D4F4967540D993\SYSTEM.XML.LINQ.NI.DLL
C:\WINDOWS\MICROSOFT.NET\ASSEMBLY\GAC_MSIL\SYSTEM.XML.LINQ\V4.0_4.0.0.0__B77A5C561934E089\SYSTEM.XML.LINQ.DLL
C:\WINDOWS\ASSEMBLY\NATIVEIMAGES_V4.0.30319_32\SYSTEM.DATA.DATASET#\EE695C95CDC7B75571C1D37525E20FDA\SYSTEM.DATA.DATASETEXTENSIONS.NI.DLL
C:\WINDOWS\MICROSOFT.NET\ASSEMBLY\GAC_MSIL\SYSTEM.DATA.DATASETEXTENSIONS\V4.0_4.0.0.0__B77A5C561934E089\SYSTEM.DATA.DATASETEXTENSIONS.DLL
C:\WINDOWS\ASSEMBLY\NATIVEIMAGES_V4.0.30319_32\MICROSOFT.VISUALBAS#\B65CD8FB7A1A7F123E5928ED61100811\MICROSOFT.VISUALBASIC.NI.DLL
C:\WINDOWS\MICROSOFT.NET\ASSEMBLY\GAC_MSIL\MICROSOFT.VISUALBASIC\V4.0_10.0.0.0__B03F5F7F11D50A3A\MICROSOFT.VISUALBASIC.DLL
C:\DOCUMENTS AND SETTINGS\TSTEER\LOCAL SETTINGS\TEMP\B21EC0E4A2BB483A91D695630B64623D.RSP
