^X:\SOFTWARE DEVELOPMENT (.NET VS2010)\ETCHMRCACTIVITYREPORT\TDXACTIVITYREPORT\FORM1.RESX|X:\SOFTWARE DEVELOPMENT (.NET VS2010)\ETCHMRCACTIVITYREPORT\TDXACTIVITYREPORT\MY PROJECT\RESOURCES.RESX
X:\SOFTWARE DEVELOPMENT (.NET VS2010)\ETCHMRCACTIVITYREPORT\TDXACTIVITYREPORT\OBJ\X86\DEBUG\TDXACTIVITYREPORT.FORM1.RESOURCES
X:\SOFTWARE DEVELOPMENT (.NET VS2010)\ETCHMRCACTIVITYREPORT\TDXACTIVITYREPORT\OBJ\X86\DEBUG\TDXACTIVITYREPORT.RESOURCES.RESOURCES
