^X:\SOFTWARE DEVELOPMENT (.NET VS2010)\BAILIFFALLOCATION\BAILIFFALLOCATION\DIAADDPUSHPIN.RESX|X:\SOFTWARE DEVELOPMENT (.NET VS2010)\BAILIFFALLOCATION\BAILIFFALLOCATION\DIABAILIFF.RESX|X:\SOFTWARE DEVELOPMENT (.NET VS2010)\BAILIFFALLOCATION\BAILIFFALLOCATION\DIACASEDETAIL.RESX|X:\SOFTWARE DEVELOPMENT (.NET VS2010)\BAILIFFALLOCATION\BAILIFFALLOCATION\DIACLIENTALLOCATIONLEVELS.RESX|X:\SOFTWARE DEVELOPMENT (.NET VS2010)\BAILIFFALLOCATION\BAILIFFALLOCATION\FRMBAILIFFSUMMARY.RESX|X:\SOFTWARE DEVELOPMENT (.NET VS2010)\BAILIFFALLOCATION\BAILIFFALLOCATION\FRMCASESUMMARY.RESX|X:\SOFTWARE DEVELOPMENT (.NET VS2010)\BAILIFFALLOCATION\BAILIFFALLOCATION\FRMMAP.RESX|X:\SOFTWARE DEVELOPMENT (.NET VS2010)\BAILIFFALLOCATION\BAILIFFALLOCATION\FRMPOSTENFORCEMENTSUMMARY.RESX|X:\SOFTWARE DEVELOPMENT (.NET VS2010)\BAILIFFALLOCATION\BAILIFFALLOCATION\FRMSPLASHSCREEN.RESX|X:\SOFTWARE DEVELOPMENT (.NET VS2010)\BAILIFFALLOCATION\BAILIFFALLOCATION\MY PROJECT\RESOURCES.RESX
X:\SOFTWARE DEVELOPMENT (.NET VS2010)\BAILIFFALLOCATION\BAILIFFALLOCATION\OBJ\X86\DEBUG\BAILIFFALLOCATION.FRMCASESUMMARY.RESOURCES
X:\SOFTWARE DEVELOPMENT (.NET VS2010)\BAILIFFALLOCATION\BAILIFFALLOCATION\OBJ\X86\DEBUG\BAILIFFALLOCATION.FRMPOSTENFORCEMENTSUMMARY.RESOURCES
