^X:\SOFTWARE DEVELOPMENT (.NET VS2010)\HMRCPAYMENTSUPDATESPREPROCESS\HMRCPAYMENTSUPDATESPREPROCESS\FRMMAIN.RESX|X:\SOFTWARE DEVELOPMENT (.NET VS2010)\HMRCPAYMENTSUPDATESPREPROCESS\HMRCPAYMENTSUPDATESPREPROCESS\MY PROJECT\RESOURCES.RESX
X:\SOFTWARE DEVELOPMENT (.NET VS2010)\HMRCPAYMENTSUPDATESPREPROCESS\HMRCPAYMENTSUPDATESPREPROCESS\OBJ\X86\DEBUG\HMRCPAYMENTSUPDATESPREPROCESS.FRMMAIN.RESOURCES
X:\SOFTWARE DEVELOPMENT (.NET VS2010)\HMRCPAYMENTSUPDATESPREPROCESS\HMRCPAYMENTSUPDATESPREPROCESS\OBJ\X86\DEBUG\HMRCPAYMENTSUPDATESPREPROCESS.RESOURCES.RESOURCES
^X:\SOFTWARE DEVELOPMENT (.NET VS2010)\HMRCPAYMENTSUPDATESPREPROCESS\HMRCPAYMENTSUPDATESPREPROCESS\FRMMAIN.RESX|X:\SOFTWARE DEVELOPMENT (.NET VS2010)\HMRCPAYMENTSUPDATESPREPROCESS\HMRCPAYMENTSUPDATESPREPROCESS\FRMSPLASHSCREEN.RESX|X:\SOFTWARE DEVELOPMENT (.NET VS2010)\HMRCPAYMENTSUPDATESPREPROCESS\HMRCPAYMENTSUPDATESPREPROCESS\MY PROJECT\RESOURCES.RESX
X:\SOFTWARE DEVELOPMENT (.NET VS2010)\HMRCPAYMENTSUPDATESPREPROCESS\HMRCPAYMENTSUPDATESPREPROCESS\OBJ\X86\DEBUG\HMRCPAYMENTSUPDATESPREPROCESS.FRMMAIN.RESOURCES
X:\SOFTWARE DEVELOPMENT (.NET VS2010)\HMRCPAYMENTSUPDATESPREPROCESS\HMRCPAYMENTSUPDATESPREPROCESS\OBJ\X86\DEBUG\HMRCPAYMENTSUPDATESPREPROCESS.FRMSPLASHSCREEN.RESOURCES
X:\SOFTWARE DEVELOPMENT (.NET VS2010)\HMRCPAYMENTSUPDATESPREPROCESS\HMRCPAYMENTSUPDATESPREPROCESS\OBJ\X86\DEBUG\HMRCPAYMENTSUPDATESPREPROCESS.RESOURCES.RESOURCES
