^\\ROSSVR01\SHARED\COMPANY\IT\SOFTWARE DEVELOPMENT (.NET VS2010)\CMGRECYCLEDCASESADDNOTES\CMGRECYCLEDCASESADDNOTES\FORM1.RESX|\\ROSSVR01\SHARED\COMPANY\IT\SOFTWARE DEVELOPMENT (.NET VS2010)\CMGRECYCLEDCASESADDNOTES\CMGRECYCLEDCASESADDNOTES\MY PROJECT\RESOURCES.RESX
\\ROSSVR01\SHARED\COMPANY\IT\SOFTWARE DEVELOPMENT (.NET VS2010)\CMGRECYCLEDCASESADDNOTES\CMGRECYCLEDCASESADDNOTES\OBJ\X86\DEBUG\CMGRECYCLEDCASESADDNOTES.FORM1.RESOURCES
\\ROSSVR01\SHARED\COMPANY\IT\SOFTWARE DEVELOPMENT (.NET VS2010)\CMGRECYCLEDCASESADDNOTES\CMGRECYCLEDCASESADDNOTES\OBJ\X86\DEBUG\CMGRECYCLEDCASESADDNOTES.RESOURCES.RESOURCES
^X:\SOFTWARE DEVELOPMENT (.NET VS2010)\CMGRECYCLEDCASESADDNOTES\CMGRECYCLEDCASESADDNOTES\FORM1.RESX|X:\SOFTWARE DEVELOPMENT (.NET VS2010)\CMGRECYCLEDCASESADDNOTES\CMGRECYCLEDCASESADDNOTES\MY PROJECT\RESOURCES.RESX
X:\SOFTWARE DEVELOPMENT (.NET VS2010)\CMGRECYCLEDCASESADDNOTES\CMGRECYCLEDCASESADDNOTES\OBJ\X86\DEBUG\CMGRECYCLEDCASESADDNOTES.FORM1.RESOURCES
X:\SOFTWARE DEVELOPMENT (.NET VS2010)\CMGRECYCLEDCASESADDNOTES\CMGRECYCLEDCASESADDNOTES\OBJ\X86\DEBUG\CMGRECYCLEDCASESADDNOTES.RESOURCES.RESOURCES
