^\\ROSSVR01\SHARED\COMPANY\IT\SOFTWARE DEVELOPMENT (.NET VS2010)\TRACEPREPROCESS\TRACEPREPROCESS\FRMMAIN.RESX|\\ROSSVR01\SHARED\COMPANY\IT\SOFTWARE DEVELOPMENT (.NET VS2010)\TRACEPREPROCESS\TRACEPREPROCESS\FRMSPLASHSCREEN.RESX|\\ROSSVR01\SHARED\COMPANY\IT\SOFTWARE DEVELOPMENT (.NET VS2010)\TRACEPREPROCESS\TRACEPREPROCESS\MY PROJECT\RESOURCES.RESX
\\ROSSVR01\SHARED\COMPANY\IT\SOFTWARE DEVELOPMENT (.NET VS2010)\TRACEPREPROCESS\TRACEPREPROCESS\OBJ\X86\RELEASE\TRACEPREPROCESS.FRMMAIN.RESOURCES
\\ROSSVR01\SHARED\COMPANY\IT\SOFTWARE DEVELOPMENT (.NET VS2010)\TRACEPREPROCESS\TRACEPREPROCESS\OBJ\X86\RELEASE\TRACEPREPROCESS.FRMSPLASHSCREEN.RESOURCES
\\ROSSVR01\SHARED\COMPANY\IT\SOFTWARE DEVELOPMENT (.NET VS2010)\TRACEPREPROCESS\TRACEPREPROCESS\OBJ\X86\RELEASE\TRACEPREPROCESS.RESOURCES.RESOURCES
