#Command: "H:\Visual Studio 2010\Projects\BailiffAllocation\BailiffAllocation\bin\Debug\BailiffAllocation.vshost.exe" 
^H:\VISUAL STUDIO 2010\PROJECTS\BAILIFFALLOCATION\BAILIFFALLOCATION\DIABAILIFF.RESX|H:\VISUAL STUDIO 2010\PROJECTS\BAILIFFALLOCATION\BAILIFFALLOCATION\DIACASEDETAIL.RESX|H:\VISUAL STUDIO 2010\PROJECTS\BAILIFFALLOCATION\BAILIFFALLOCATION\DIACLIENTALLOCATIONLEVELS.RESX|H:\VISUAL STUDIO 2010\PROJECTS\BAILIFFALLOCATION\BAILIFFALLOCATION\FRMBAILIFFSUMMARY.RESX|H:\VISUAL STUDIO 2010\PROJECTS\BAILIFFALLOCATION\BAILIFFALLOCATION\FRMCASESUMMARY.RESX|H:\VISUAL STUDIO 2010\PROJECTS\BAILIFFALLOCATION\BAILIFFALLOCATION\FRMMAP.RESX|H:\VISUAL STUDIO 2010\PROJECTS\BAILIFFALLOCATION\BAILIFFALLOCATION\MY PROJECT\RESOURCES.RESX
C:\PROGRAM FILES\COMMON FILES\MICROSOFT SHARED\MSENV\VSPROJHOSTPROC.OLB
C:\WINDOWS\SYSTEM32\STDOLE2.TLB
H:\VISUAL STUDIO 2010\PROJECTS\BAILIFFALLOCATION\BAILIFFALLOCATION\BIN\DEBUG\BAILIFFALLOCATION.VSHOST.EXE.CONFIG
C:\DOCUMENTS AND SETTINGS\TSTEER\LOCAL SETTINGS\TEMP\B21EC0E4A2BB483A91D695630B64623D.RSP
#Command: "H:\Visual Studio 2010\Projects\BailiffAllocation\BailiffAllocation\bin\Debug\BailiffAllocation.vshost.exe" 
^H:\VISUAL STUDIO 2010\PROJECTS\BAILIFFALLOCATION\BAILIFFALLOCATION\DIABAILIFF.RESX|H:\VISUAL STUDIO 2010\PROJECTS\BAILIFFALLOCATION\BAILIFFALLOCATION\DIACASEDETAIL.RESX|H:\VISUAL STUDIO 2010\PROJECTS\BAILIFFALLOCATION\BAILIFFALLOCATION\DIACLIENTALLOCATIONLEVELS.RESX|H:\VISUAL STUDIO 2010\PROJECTS\BAILIFFALLOCATION\BAILIFFALLOCATION\FRMBAILIFFSUMMARY.RESX|H:\VISUAL STUDIO 2010\PROJECTS\BAILIFFALLOCATION\BAILIFFALLOCATION\FRMCASESUMMARY.RESX|H:\VISUAL STUDIO 2010\PROJECTS\BAILIFFALLOCATION\BAILIFFALLOCATION\FRMMAP.RESX|H:\VISUAL STUDIO 2010\PROJECTS\BAILIFFALLOCATION\BAILIFFALLOCATION\MY PROJECT\RESOURCES.RESX
C:\PROGRAM FILES\COMMON FILES\MICROSOFT SHARED\MSENV\VSPROJHOSTPROC.OLB
C:\WINDOWS\SYSTEM32\STDOLE2.TLB
H:\VISUAL STUDIO 2010\PROJECTS\BAILIFFALLOCATION\BAILIFFALLOCATION\BIN\DEBUG\BAILIFFALLOCATION.VSHOST.EXE.CONFIG
#Command: "H:\Visual Studio 2010\Projects\BailiffAllocation\BailiffAllocation\bin\Debug\BailiffAllocation.vshost.exe" 
^H:\VISUAL STUDIO 2010\PROJECTS\BAILIFFALLOCATION\BAILIFFALLOCATION\DIABAILIFF.RESX|H:\VISUAL STUDIO 2010\PROJECTS\BAILIFFALLOCATION\BAILIFFALLOCATION\DIACASEDETAIL.RESX|H:\VISUAL STUDIO 2010\PROJECTS\BAILIFFALLOCATION\BAILIFFALLOCATION\DIACLIENTALLOCATIONLEVELS.RESX|H:\VISUAL STUDIO 2010\PROJECTS\BAILIFFALLOCATION\BAILIFFALLOCATION\FRMBAILIFFSUMMARY.RESX|H:\VISUAL STUDIO 2010\PROJECTS\BAILIFFALLOCATION\BAILIFFALLOCATION\FRMCASESUMMARY.RESX|H:\VISUAL STUDIO 2010\PROJECTS\BAILIFFALLOCATION\BAILIFFALLOCATION\FRMMAP.RESX|H:\VISUAL STUDIO 2010\PROJECTS\BAILIFFALLOCATION\BAILIFFALLOCATION\FRMSPLASHSCREEN.RESX|H:\VISUAL STUDIO 2010\PROJECTS\BAILIFFALLOCATION\BAILIFFALLOCATION\MY PROJECT\RESOURCES.RESX
C:\PROGRAM FILES\COMMON FILES\MICROSOFT SHARED\MSENV\VSPROJHOSTPROC.OLB
C:\WINDOWS\SYSTEM32\STDOLE2.TLB
H:\VISUAL STUDIO 2010\PROJECTS\BAILIFFALLOCATION\BAILIFFALLOCATION\BIN\DEBUG\BAILIFFALLOCATION.VSHOST.EXE.CONFIG
#Command: "H:\Visual Studio 2010\Projects\BailiffAllocation\BailiffAllocation\bin\Debug\BailiffAllocation.vshost.exe" 
^H:\VISUAL STUDIO 2010\PROJECTS\BAILIFFALLOCATION\BAILIFFALLOCATION\DIABAILIFF.RESX|H:\VISUAL STUDIO 2010\PROJECTS\BAILIFFALLOCATION\BAILIFFALLOCATION\DIACASEDETAIL.RESX|H:\VISUAL STUDIO 2010\PROJECTS\BAILIFFALLOCATION\BAILIFFALLOCATION\DIACLIENTALLOCATIONLEVELS.RESX|H:\VISUAL STUDIO 2010\PROJECTS\BAILIFFALLOCATION\BAILIFFALLOCATION\FRMBAILIFFSUMMARY.RESX|H:\VISUAL STUDIO 2010\PROJECTS\BAILIFFALLOCATION\BAILIFFALLOCATION\FRMCASESUMMARY.RESX|H:\VISUAL STUDIO 2010\PROJECTS\BAILIFFALLOCATION\BAILIFFALLOCATION\FRMMAP.RESX|H:\VISUAL STUDIO 2010\PROJECTS\BAILIFFALLOCATION\BAILIFFALLOCATION\FRMSPLASHSCREEN.RESX|H:\VISUAL STUDIO 2010\PROJECTS\BAILIFFALLOCATION\BAILIFFALLOCATION\MY PROJECT\RESOURCES.RESX
C:\PROGRAM FILES\COMMON FILES\MICROSOFT SHARED\MSENV\VSPROJHOSTPROC.OLB
C:\WINDOWS\SYSTEM32\STDOLE2.TLB
H:\VISUAL STUDIO 2010\PROJECTS\BAILIFFALLOCATION\BAILIFFALLOCATION\BIN\DEBUG\BAILIFFALLOCATION.VSHOST.EXE.CONFIG
C:\WINDOWS\MICROSOFT.NET\FRAMEWORK\V4.0.30319\MSCORRC.DLL
H:\VISUAL STUDIO 2010\PROJECTS\BAILIFFALLOCATION\BAILIFFALLOCATION\BIN\DEBUG\BAILIFFALLOCATION.EXE
#Command: "H:\Visual Studio 2010\Projects\BailiffAllocation\BailiffAllocation\bin\Debug\BailiffAllocation.vshost.exe" 
^H:\VISUAL STUDIO 2010\PROJECTS\BAILIFFALLOCATION\BAILIFFALLOCATION\DIABAILIFF.RESX|H:\VISUAL STUDIO 2010\PROJECTS\BAILIFFALLOCATION\BAILIFFALLOCATION\DIACASEDETAIL.RESX|H:\VISUAL STUDIO 2010\PROJECTS\BAILIFFALLOCATION\BAILIFFALLOCATION\DIACLIENTALLOCATIONLEVELS.RESX|H:\VISUAL STUDIO 2010\PROJECTS\BAILIFFALLOCATION\BAILIFFALLOCATION\FRMBAILIFFSUMMARY.RESX|H:\VISUAL STUDIO 2010\PROJECTS\BAILIFFALLOCATION\BAILIFFALLOCATION\FRMCASESUMMARY.RESX|H:\VISUAL STUDIO 2010\PROJECTS\BAILIFFALLOCATION\BAILIFFALLOCATION\FRMMAP.RESX|H:\VISUAL STUDIO 2010\PROJECTS\BAILIFFALLOCATION\BAILIFFALLOCATION\FRMSPLASHSCREEN.RESX|H:\VISUAL STUDIO 2010\PROJECTS\BAILIFFALLOCATION\BAILIFFALLOCATION\MY PROJECT\RESOURCES.RESX
C:\PROGRAM FILES\COMMON FILES\MICROSOFT SHARED\MSENV\VSPROJHOSTPROC.OLB
C:\WINDOWS\SYSTEM32\STDOLE2.TLB
H:\VISUAL STUDIO 2010\PROJECTS\BAILIFFALLOCATION\BAILIFFALLOCATION\BIN\DEBUG\BAILIFFALLOCATION.VSHOST.EXE.CONFIG
#Command: "H:\Visual Studio 2010\Projects\BailiffAllocation\BailiffAllocation\bin\Debug\BailiffAllocation.vshost.exe" 
^H:\VISUAL STUDIO 2010\PROJECTS\BAILIFFALLOCATION\BAILIFFALLOCATION\DIABAILIFF.RESX|H:\VISUAL STUDIO 2010\PROJECTS\BAILIFFALLOCATION\BAILIFFALLOCATION\DIACASEDETAIL.RESX|H:\VISUAL STUDIO 2010\PROJECTS\BAILIFFALLOCATION\BAILIFFALLOCATION\DIACLIENTALLOCATIONLEVELS.RESX|H:\VISUAL STUDIO 2010\PROJECTS\BAILIFFALLOCATION\BAILIFFALLOCATION\FRMBAILIFFSUMMARY.RESX|H:\VISUAL STUDIO 2010\PROJECTS\BAILIFFALLOCATION\BAILIFFALLOCATION\FRMCASESUMMARY.RESX|H:\VISUAL STUDIO 2010\PROJECTS\BAILIFFALLOCATION\BAILIFFALLOCATION\FRMMAP.RESX|H:\VISUAL STUDIO 2010\PROJECTS\BAILIFFALLOCATION\BAILIFFALLOCATION\FRMSPLASHSCREEN.RESX|H:\VISUAL STUDIO 2010\PROJECTS\BAILIFFALLOCATION\BAILIFFALLOCATION\MY PROJECT\RESOURCES.RESX
C:\PROGRAM FILES\COMMON FILES\MICROSOFT SHARED\MSENV\VSPROJHOSTPROC.OLB
C:\WINDOWS\SYSTEM32\STDOLE2.TLB
H:\VISUAL STUDIO 2010\PROJECTS\BAILIFFALLOCATION\BAILIFFALLOCATION\BIN\DEBUG\BAILIFFALLOCATION.VSHOST.EXE.CONFIG
C:\WINDOWS\MICROSOFT.NET\FRAMEWORK\V4.0.30319\MSCORRC.DLL
H:\VISUAL STUDIO 2010\PROJECTS\BAILIFFALLOCATION\BAILIFFALLOCATION\BIN\DEBUG\BAILIFFALLOCATION.EXE
