^X:\SOFTWARE DEVELOPMENT (.NET VS2010)\TDX-HMRCPREPROCESS\TDX-HMRCPREPROCESS\MY PROJECT\RESOURCES.RESX
^X:\SOFTWARE DEVELOPMENT (.NET VS2010)\TDX-HMRCPREPROCESS\TDX-HMRCPREPROCESS\FRMSPLASHSCREEN.RESX
^X:\SOFTWARE DEVELOPMENT (.NET VS2010)\TDX-HMRCPREPROCESS\TDX-HMRCPREPROCESS\FRMMAIN.RESX
