^X:\SOFTWARE DEVELOPMENT (.NET VS2010)\ARROWINVENTORYREPORT\ARROWINVENTORYREPORT\MAINFRM.RESX|X:\SOFTWARE DEVELOPMENT (.NET VS2010)\ARROWINVENTORYREPORT\ARROWINVENTORYREPORT\MY PROJECT\RESOURCES.RESX
X:\SOFTWARE DEVELOPMENT (.NET VS2010)\ARROWINVENTORYREPORT\ARROWINVENTORYREPORT\OBJ\DEBUG\ARROWINVENTORYREPORT.MAINFRM.RESOURCES
X:\SOFTWARE DEVELOPMENT (.NET VS2010)\ARROWINVENTORYREPORT\ARROWINVENTORYREPORT\OBJ\DEBUG\ARROWINVENTORYREPORT.RESOURCES.RESOURCES
