^X:\SOFTWARE DEVELOPMENT (.NET VS2010)\STAFFORDPREPROCESS\STAFFORDPREPROCESS\FRMMAIN.RESX|X:\SOFTWARE DEVELOPMENT (.NET VS2010)\STAFFORDPREPROCESS\STAFFORDPREPROCESS\FRMSPLASHSCREEN.RESX|X:\SOFTWARE DEVELOPMENT (.NET VS2010)\STAFFORDPREPROCESS\STAFFORDPREPROCESS\MY PROJECT\RESOURCES.RESX
X:\SOFTWARE DEVELOPMENT (.NET VS2010)\STAFFORDPREPROCESS\STAFFORDPREPROCESS\OBJ\X86\DEBUG\STAFFORDPREPROCESS.FRMMAIN.RESOURCES
X:\SOFTWARE DEVELOPMENT (.NET VS2010)\STAFFORDPREPROCESS\STAFFORDPREPROCESS\OBJ\X86\DEBUG\STAFFORDPREPROCESS.FRMSPLASHSCREEN.RESOURCES
X:\SOFTWARE DEVELOPMENT (.NET VS2010)\STAFFORDPREPROCESS\STAFFORDPREPROCESS\OBJ\X86\DEBUG\STAFFORDPREPROCESS.RESOURCES.RESOURCES
