^X:\SOFTWARE DEVELOPMENT (.NET VS2010)\TELEPHONENUMBERLOAD\TELEPHONENUMBERLOAD\CLIENTS.RESX
^X:\SOFTWARE DEVELOPMENT (.NET VS2010)\TELEPHONENUMBERLOAD\TELEPHONENUMBERLOAD\MY PROJECT\RESOURCES.RESX
^X:\SOFTWARE DEVELOPMENT (.NET VS2010)\TELEPHONENUMBERLOAD\TELEPHONENUMBERLOAD\MAINFRM.RESX
