^X:\SOFTWARE DEVELOPMENT (.NET VS2010)\ACADEMYPREPROCESS\ACADEMYPREPROCESS\CLIENTFRM.RESX
^X:\SOFTWARE DEVELOPMENT (.NET VS2010)\ACADEMYPREPROCESS\ACADEMYPREPROCESS\FORM1.RESX
^X:\SOFTWARE DEVELOPMENT (.NET VS2010)\ACADEMYPREPROCESS\ACADEMYPREPROCESS\MY PROJECT\RESOURCES.RESX
^X:\SOFTWARE DEVELOPMENT (.NET VS2010)\ACADEMYPREPROCESS\ACADEMYPREPROCESS\SCHEMEFRM.RESX
