^X:\SOFTWARE DEVELOPMENT (.NET VS2010)\BLACKBURNLOADPHONENUMBERS\BLACKBURNLOADPHONENUMBERS\FRMMAIN.RESX|X:\SOFTWARE DEVELOPMENT (.NET VS2010)\BLACKBURNLOADPHONENUMBERS\BLACKBURNLOADPHONENUMBERS\FRMSPLASHSCREEN.RESX|X:\SOFTWARE DEVELOPMENT (.NET VS2010)\BLACKBURNLOADPHONENUMBERS\BLACKBURNLOADPHONENUMBERS\MY PROJECT\RESOURCES.RESX
X:\SOFTWARE DEVELOPMENT (.NET VS2010)\BLACKBURNLOADPHONENUMBERS\BLACKBURNLOADPHONENUMBERS\OBJ\X86\RELEASE\BLACKBURNLOADPHONENUMBERS.FRMSPLASHSCREEN.RESOURCES
X:\SOFTWARE DEVELOPMENT (.NET VS2010)\BLACKBURNLOADPHONENUMBERS\BLACKBURNLOADPHONENUMBERS\OBJ\X86\RELEASE\BLACKBURNLOADPHONENUMBERS.RESOURCES.RESOURCES
