^X:\SOFTWARE DEVELOPMENT (.NET VS2010)\STUDENTLOANSADDRESSRETURNFILE\STUDENTLOANSADDRESSRETURNFILE\MY PROJECT\RESOURCES.RESX
^\\ROSSVR02\SHARED\USERS\TSTEER\VISUAL STUDIO 2010\PROJECTS\STUDENTLOANSADDRESSRETURNFILE\STUDENTLOANSADDRESSRETURNFILE\MY PROJECT\RESOURCES.RESX
^\\ROSSVR02\SHARED\USERS\TSTEER\VISUAL STUDIO 2010\PROJECTS\STUDENTLOANSADDRESSRETURNFILE\STUDENTLOANSADDRESSRETURNFILE\FRMMAIN.RESX
^H:\VISUAL STUDIO 2010\PROJECTS\STUDENTLOANSADDRESSRETURNFILE\STUDENTLOANSADDRESSRETURNFILE\FRMMAIN.RESX
^H:\VISUAL STUDIO 2010\PROJECTS\STUDENTLOANSADDRESSRETURNFILE\STUDENTLOANSADDRESSRETURNFILE\MY PROJECT\RESOURCES.RESX
^X:\SOFTWARE DEVELOPMENT (.NET VS2010)\STUDENTLOANSADDRESSRETURNFILE\STUDENTLOANSADDRESSRETURNFILE\FRMMAIN.RESX
^X:\SOFTWARE DEVELOPMENT (.NET VS2010)\STUDENTLOANSADDRESSRETURNFILE\STUDENTLOANSADDRESSRETURNFILE\FRMSPLASHSCREEN.RESX
