^X:\SOFTWARE DEVELOPMENT (.NET VS2010)\DOLPREPROCESS\DOLPREPROCESS\MAINFRM.RESX|X:\SOFTWARE DEVELOPMENT (.NET VS2010)\DOLPREPROCESS\DOLPREPROCESS\MY PROJECT\RESOURCES.RESX
X:\SOFTWARE DEVELOPMENT (.NET VS2010)\DOLPREPROCESS\DOLPREPROCESS\OBJ\X86\DEBUG\WINDOWSAPPLICATION1.MAINFRM.RESOURCES
X:\SOFTWARE DEVELOPMENT (.NET VS2010)\DOLPREPROCESS\DOLPREPROCESS\OBJ\X86\DEBUG\WINDOWSAPPLICATION1.RESOURCES.RESOURCES
