^X:\SOFTWARE DEVELOPMENT (.NET VS2010)\LANCASTERNNDRPREPROCESS\LANCASTERNNDRPREPROCESS\ERRORS.RESX|X:\SOFTWARE DEVELOPMENT (.NET VS2010)\LANCASTERNNDRPREPROCESS\LANCASTERNNDRPREPROCESS\MAIN.RESX|X:\SOFTWARE DEVELOPMENT (.NET VS2010)\LANCASTERNNDRPREPROCESS\LANCASTERNNDRPREPROCESS\MY PROJECT\RESOURCES.RESX|X:\SOFTWARE DEVELOPMENT (.NET VS2010)\LANCASTERNNDRPREPROCESS\LANCASTERNNDRPREPROCESS\VIEW.RESX
X:\SOFTWARE DEVELOPMENT (.NET VS2010)\LANCASTERNNDRPREPROCESS\LANCASTERNNDRPREPROCESS\OBJ\X86\DEBUG\LANCASTERNNDRPREPROCESS.ERRORS.RESOURCES
X:\SOFTWARE DEVELOPMENT (.NET VS2010)\LANCASTERNNDRPREPROCESS\LANCASTERNNDRPREPROCESS\OBJ\X86\DEBUG\LANCASTERNNDRPREPROCESS.MAINFORM.RESOURCES
X:\SOFTWARE DEVELOPMENT (.NET VS2010)\LANCASTERNNDRPREPROCESS\LANCASTERNNDRPREPROCESS\OBJ\X86\DEBUG\LANCASTERNNDRPREPROCESS.RESOURCES.RESOURCES
X:\SOFTWARE DEVELOPMENT (.NET VS2010)\LANCASTERNNDRPREPROCESS\LANCASTERNNDRPREPROCESS\OBJ\X86\DEBUG\LANCASTERNNDRPREPROCESS.VIEWFORM.RESOURCES
