^X:\SOFTWARE DEVELOPMENT (.NET VS2010)\TDX-SANDWELLPREPROCESS\TDX-SANDWELLPREPROCESS\FRMMAIN.RESX|X:\SOFTWARE DEVELOPMENT (.NET VS2010)\TDX-SANDWELLPREPROCESS\TDX-SANDWELLPREPROCESS\FRMSPLASHSCREEN.RESX|X:\SOFTWARE DEVELOPMENT (.NET VS2010)\TDX-SANDWELLPREPROCESS\TDX-SANDWELLPREPROCESS\MY PROJECT\RESOURCES.RESX
X:\SOFTWARE DEVELOPMENT (.NET VS2010)\TDX-SANDWELLPREPROCESS\TDX-SANDWELLPREPROCESS\OBJ\X86\DEBUG\TDX_SANDWELLPREPROCESS.FRMMAIN.RESOURCES
X:\SOFTWARE DEVELOPMENT (.NET VS2010)\TDX-SANDWELLPREPROCESS\TDX-SANDWELLPREPROCESS\OBJ\X86\DEBUG\TDX_SANDWELLPREPROCESS.FRMSPLASHSCREEN.RESOURCES
X:\SOFTWARE DEVELOPMENT (.NET VS2010)\TDX-SANDWELLPREPROCESS\TDX-SANDWELLPREPROCESS\OBJ\X86\DEBUG\TDX_SANDWELLPREPROCESS.RESOURCES.RESOURCES
