^X:\SOFTWARE DEVELOPMENT (.NET VS2010)\CLIENTREVIEWMEETING\CLIENTREVIEWMEETING\CLIENTFRM.RESX|X:\SOFTWARE DEVELOPMENT (.NET VS2010)\CLIENTREVIEWMEETING\CLIENTREVIEWMEETING\FORM1.RESX|X:\SOFTWARE DEVELOPMENT (.NET VS2010)\CLIENTREVIEWMEETING\CLIENTREVIEWMEETING\FRMSPLASHSCREEN.RESX|X:\SOFTWARE DEVELOPMENT (.NET VS2010)\CLIENTREVIEWMEETING\CLIENTREVIEWMEETING\MY PROJECT\RESOURCES.RESX
X:\SOFTWARE DEVELOPMENT (.NET VS2010)\CLIENTREVIEWMEETING\CLIENTREVIEWMEETING\OBJ\X86\DEBUG\CLIENTREVIEWMEETING.CLIENTFRM.RESOURCES
X:\SOFTWARE DEVELOPMENT (.NET VS2010)\CLIENTREVIEWMEETING\CLIENTREVIEWMEETING\OBJ\X86\DEBUG\CLIENTREVIEWMEETING.FORM1.RESOURCES
X:\SOFTWARE DEVELOPMENT (.NET VS2010)\CLIENTREVIEWMEETING\CLIENTREVIEWMEETING\OBJ\X86\DEBUG\CLIENTREVIEWMEETING.FRMSPLASHSCREEN.RESOURCES
X:\SOFTWARE DEVELOPMENT (.NET VS2010)\CLIENTREVIEWMEETING\CLIENTREVIEWMEETING\OBJ\X86\DEBUG\CLIENTREVIEWMEETING.RESOURCES.RESOURCES
