^X:\SOFTWARE DEVELOPMENT (.NET VS2010)\REMITDETAILS\REMITDETAILS\MY PROJECT\RESOURCES.RESX
^X:\SOFTWARE DEVELOPMENT (.NET VS2010)\REMITDETAILS\REMITDETAILS\REMITFRM.RESX
^X:\SOFTWARE DEVELOPMENT (.NET VS2010)\REMITDETAILS\REMITDETAILS\FORM1.RESX
