^X:\SOFTWARE DEVELOPMENT (.NET VS2010)\UNITEDUTILITIESRETURNS\UNITEDUTILITIESRETURNS\MY PROJECT\RESOURCES.RESX
^X:\SOFTWARE DEVELOPMENT (.NET VS2010)\UNITEDUTILITIESRETURNS\UNITEDUTILITIESRETURNS\FRMSPLASHSCREEN.RESX
^X:\SOFTWARE DEVELOPMENT (.NET VS2010)\UNITEDUTILITIESRETURNS\UNITEDUTILITIESRETURNS\FRMMAIN.RESX
