^X:\SOFTWARE DEVELOPMENT (.NET VS2010)\DIRECT DATATELEAPPEND\DIRECT DATATELEAPPEND\FORM1.RESX|X:\SOFTWARE DEVELOPMENT (.NET VS2010)\DIRECT DATATELEAPPEND\DIRECT DATATELEAPPEND\FRMSPLASHSCREEN.RESX|X:\SOFTWARE DEVELOPMENT (.NET VS2010)\DIRECT DATATELEAPPEND\DIRECT DATATELEAPPEND\MY PROJECT\RESOURCES.RESX
X:\SOFTWARE DEVELOPMENT (.NET VS2010)\DIRECT DATATELEAPPEND\DIRECT DATATELEAPPEND\OBJ\X86\DEBUG\DIRECT_DATATELEAPPEND.FORM1.RESOURCES
X:\SOFTWARE DEVELOPMENT (.NET VS2010)\DIRECT DATATELEAPPEND\DIRECT DATATELEAPPEND\OBJ\X86\DEBUG\DIRECT_DATATELEAPPEND.FRMSPLASHSCREEN.RESOURCES
X:\SOFTWARE DEVELOPMENT (.NET VS2010)\DIRECT DATATELEAPPEND\DIRECT DATATELEAPPEND\OBJ\X86\DEBUG\DIRECT_DATATELEAPPEND.RESOURCES.RESOURCES
