^X:\SOFTWARE DEVELOPMENT (.NET VS2010)\WORKFLOWMANAGER\WORKFLOWMANAGER\FRM1.RESX
^X:\SOFTWARE DEVELOPMENT (.NET VS2010)\WORKFLOWMANAGER\WORKFLOWMANAGER\FRM2.RESX
^X:\SOFTWARE DEVELOPMENT (.NET VS2010)\WORKFLOWMANAGER\WORKFLOWMANAGER\FRM3.RESX
^X:\SOFTWARE DEVELOPMENT (.NET VS2010)\WORKFLOWMANAGER\WORKFLOWMANAGER\FRMMAIN.RESX
^X:\SOFTWARE DEVELOPMENT (.NET VS2010)\WORKFLOWMANAGER\WORKFLOWMANAGER\MY PROJECT\RESOURCES.RESX
