^X:\SOFTWARE DEVELOPMENT (.NET VS2010)\ACTIVESECURITIESPREPROCESS\ACTIVESECURITIESPREPROCESS\FRMMAIN.RESX|X:\SOFTWARE DEVELOPMENT (.NET VS2010)\ACTIVESECURITIESPREPROCESS\ACTIVESECURITIESPREPROCESS\MY PROJECT\RESOURCES.RESX
^X:\SOFTWARE DEVELOPMENT (.NET VS2010)\ACTIVESECURITIESPREPROCESS\ACTIVESECURITIESPREPROCESS\FRMMAIN.RESX|X:\SOFTWARE DEVELOPMENT (.NET VS2010)\ACTIVESECURITIESPREPROCESS\ACTIVESECURITIESPREPROCESS\FRMSPLASHSCREEN.RESX|X:\SOFTWARE DEVELOPMENT (.NET VS2010)\ACTIVESECURITIESPREPROCESS\ACTIVESECURITIESPREPROCESS\MY PROJECT\RESOURCES.RESX
X:\SOFTWARE DEVELOPMENT (.NET VS2010)\ACTIVESECURITIESPREPROCESS\ACTIVESECURITIESPREPROCESS\OBJ\X86\DEBUG\ACTIVESECURITIESPREPROCESS.FRMMAIN.RESOURCES
X:\SOFTWARE DEVELOPMENT (.NET VS2010)\ACTIVESECURITIESPREPROCESS\ACTIVESECURITIESPREPROCESS\OBJ\X86\DEBUG\ACTIVESECURITIESPREPROCESS.FRMSPLASHSCREEN.RESOURCES
X:\SOFTWARE DEVELOPMENT (.NET VS2010)\ACTIVESECURITIESPREPROCESS\ACTIVESECURITIESPREPROCESS\OBJ\X86\DEBUG\ACTIVESECURITIESPREPROCESS.RESOURCES.RESOURCES
