^X:\SOFTWARE DEVELOPMENT (.NET VS2010)\TDX-HMRCPREPROCESS\TDX-HMRCPREPROCESS\FRMMAIN.RESX|X:\SOFTWARE DEVELOPMENT (.NET VS2010)\TDX-HMRCPREPROCESS\TDX-HMRCPREPROCESS\MY PROJECT\RESOURCES.RESX
X:\SOFTWARE DEVELOPMENT (.NET VS2010)\TDX-HMRCPREPROCESS\TDX-HMRCPREPROCESS\OBJ\X86\DEBUG\TDX_HMRCPREPROCESS.FRMMAIN.RESOURCES
X:\SOFTWARE DEVELOPMENT (.NET VS2010)\TDX-HMRCPREPROCESS\TDX-HMRCPREPROCESS\OBJ\X86\DEBUG\TDX_HMRCPREPROCESS.RESOURCES.RESOURCES
^X:\SOFTWARE DEVELOPMENT (.NET VS2010)\TDX-HMRCPREPROCESS\TDX-HMRCPREPROCESS\FRMMAIN.RESX|X:\SOFTWARE DEVELOPMENT (.NET VS2010)\TDX-HMRCPREPROCESS\TDX-HMRCPREPROCESS\FRMSPLASHSCREEN.RESX|X:\SOFTWARE DEVELOPMENT (.NET VS2010)\TDX-HMRCPREPROCESS\TDX-HMRCPREPROCESS\MY PROJECT\RESOURCES.RESX
