^X:\SOFTWARE DEVELOPMENT (.NET VS2010)\BAILIFFREMUNERATION\BAILIFFREMUNERATION\FRMMAIN.RESX|X:\SOFTWARE DEVELOPMENT (.NET VS2010)\BAILIFFREMUNERATION\BAILIFFREMUNERATION\MY PROJECT\RESOURCES.RESX
X:\SOFTWARE DEVELOPMENT (.NET VS2010)\BAILIFFREMUNERATION\BAILIFFREMUNERATION\OBJ\X86\DEBUG\BAILIFFREMUNERATION.FRMMAIN.RESOURCES
X:\SOFTWARE DEVELOPMENT (.NET VS2010)\BAILIFFREMUNERATION\BAILIFFREMUNERATION\OBJ\X86\DEBUG\BAILIFFREMUNERATION.RESOURCES.RESOURCES
^X:\SOFTWARE DEVELOPMENT (.NET VS2010)\BAILIFFREMUNERATION\BAILIFFREMUNERATION\FRMMAIN.RESX|X:\SOFTWARE DEVELOPMENT (.NET VS2010)\BAILIFFREMUNERATION\BAILIFFREMUNERATION\FRMSPLASHSCREEN.RESX|X:\SOFTWARE DEVELOPMENT (.NET VS2010)\BAILIFFREMUNERATION\BAILIFFREMUNERATION\MY PROJECT\RESOURCES.RESX
X:\SOFTWARE DEVELOPMENT (.NET VS2010)\BAILIFFREMUNERATION\BAILIFFREMUNERATION\OBJ\X86\DEBUG\BAILIFFREMUNERATION.FRMMAIN.RESOURCES
X:\SOFTWARE DEVELOPMENT (.NET VS2010)\BAILIFFREMUNERATION\BAILIFFREMUNERATION\OBJ\X86\DEBUG\BAILIFFREMUNERATION.FRMSPLASHSCREEN.RESOURCES
X:\SOFTWARE DEVELOPMENT (.NET VS2010)\BAILIFFREMUNERATION\BAILIFFREMUNERATION\OBJ\X86\DEBUG\BAILIFFREMUNERATION.RESOURCES.RESOURCES
