^X:\SOFTWARE DEVELOPMENT (.NET VS2010)\LANDREGISTRYPREPROCESS\LANDREGISTRYPREPROCESS\FORM1.RESX|X:\SOFTWARE DEVELOPMENT (.NET VS2010)\LANDREGISTRYPREPROCESS\LANDREGISTRYPREPROCESS\MY PROJECT\RESOURCES.RESX
^X:\SOFTWARE DEVELOPMENT (.NET VS2010)\LANDREGISTRYPREPROCESSUDC\LANDREGISTRYPREPROCESS\FORM1.RESX|X:\SOFTWARE DEVELOPMENT (.NET VS2010)\LANDREGISTRYPREPROCESSUDC\LANDREGISTRYPREPROCESS\MY PROJECT\RESOURCES.RESX
X:\SOFTWARE DEVELOPMENT (.NET VS2010)\LANDREGISTRYPREPROCESSUDC\LANDREGISTRYPREPROCESS\OBJ\X86\DEBUG\LNDREGISTRYPREPROCESS.FORM1.RESOURCES
X:\SOFTWARE DEVELOPMENT (.NET VS2010)\LANDREGISTRYPREPROCESSUDC\LANDREGISTRYPREPROCESS\OBJ\X86\DEBUG\LNDREGISTRYPREPROCESS.RESOURCES.RESOURCES
