#Command: "H:\Visual Studio 2010\Projects\BailiffAllocation\BailiffAllocation\bin\Debug\BailiffAllocation.vshost.exe" 
^H:\VISUAL STUDIO 2010\PROJECTS\BAILIFFALLOCATION\BAILIFFALLOCATION\DIABAILIFF.RESX|H:\VISUAL STUDIO 2010\PROJECTS\BAILIFFALLOCATION\BAILIFFALLOCATION\DIACASEDETAIL.RESX|H:\VISUAL STUDIO 2010\PROJECTS\BAILIFFALLOCATION\BAILIFFALLOCATION\DIACLIENTALLOCATIONLEVELS.RESX|H:\VISUAL STUDIO 2010\PROJECTS\BAILIFFALLOCATION\BAILIFFALLOCATION\FRMBAILIFFSUMMARY.RESX|H:\VISUAL STUDIO 2010\PROJECTS\BAILIFFALLOCATION\BAILIFFALLOCATION\FRMCASESUMMARY.RESX|H:\VISUAL STUDIO 2010\PROJECTS\BAILIFFALLOCATION\BAILIFFALLOCATION\FRMMAP.RESX|H:\VISUAL STUDIO 2010\PROJECTS\BAILIFFALLOCATION\BAILIFFALLOCATION\MY PROJECT\RESOURCES.RESX
#Command: "H:\Visual Studio 2010\Projects\BailiffAllocation\BailiffAllocation\bin\Debug\BailiffAllocation.vshost.exe" 
^H:\VISUAL STUDIO 2010\PROJECTS\BAILIFFALLOCATION\BAILIFFALLOCATION\DIABAILIFF.RESX|H:\VISUAL STUDIO 2010\PROJECTS\BAILIFFALLOCATION\BAILIFFALLOCATION\DIACASEDETAIL.RESX|H:\VISUAL STUDIO 2010\PROJECTS\BAILIFFALLOCATION\BAILIFFALLOCATION\DIACLIENTALLOCATIONLEVELS.RESX|H:\VISUAL STUDIO 2010\PROJECTS\BAILIFFALLOCATION\BAILIFFALLOCATION\FRMBAILIFFSUMMARY.RESX|H:\VISUAL STUDIO 2010\PROJECTS\BAILIFFALLOCATION\BAILIFFALLOCATION\FRMCASESUMMARY.RESX|H:\VISUAL STUDIO 2010\PROJECTS\BAILIFFALLOCATION\BAILIFFALLOCATION\FRMMAP.RESX|H:\VISUAL STUDIO 2010\PROJECTS\BAILIFFALLOCATION\BAILIFFALLOCATION\MY PROJECT\RESOURCES.RESX
#Command: "H:\Visual Studio 2010\Projects\BailiffAllocation\BailiffAllocation\bin\Debug\BailiffAllocation.vshost.exe" 
^H:\VISUAL STUDIO 2010\PROJECTS\BAILIFFALLOCATION\BAILIFFALLOCATION\DIABAILIFF.RESX|H:\VISUAL STUDIO 2010\PROJECTS\BAILIFFALLOCATION\BAILIFFALLOCATION\DIACASEDETAIL.RESX|H:\VISUAL STUDIO 2010\PROJECTS\BAILIFFALLOCATION\BAILIFFALLOCATION\DIACLIENTALLOCATIONLEVELS.RESX|H:\VISUAL STUDIO 2010\PROJECTS\BAILIFFALLOCATION\BAILIFFALLOCATION\FRMBAILIFFSUMMARY.RESX|H:\VISUAL STUDIO 2010\PROJECTS\BAILIFFALLOCATION\BAILIFFALLOCATION\FRMCASESUMMARY.RESX|H:\VISUAL STUDIO 2010\PROJECTS\BAILIFFALLOCATION\BAILIFFALLOCATION\FRMMAP.RESX|H:\VISUAL STUDIO 2010\PROJECTS\BAILIFFALLOCATION\BAILIFFALLOCATION\FRMSPLASHSCREEN.RESX|H:\VISUAL STUDIO 2010\PROJECTS\BAILIFFALLOCATION\BAILIFFALLOCATION\MY PROJECT\RESOURCES.RESX
#Command: "H:\Visual Studio 2010\Projects\BailiffAllocation\BailiffAllocation\bin\Debug\BailiffAllocation.vshost.exe" 
^H:\VISUAL STUDIO 2010\PROJECTS\BAILIFFALLOCATION\BAILIFFALLOCATION\DIABAILIFF.RESX|H:\VISUAL STUDIO 2010\PROJECTS\BAILIFFALLOCATION\BAILIFFALLOCATION\DIACASEDETAIL.RESX|H:\VISUAL STUDIO 2010\PROJECTS\BAILIFFALLOCATION\BAILIFFALLOCATION\DIACLIENTALLOCATIONLEVELS.RESX|H:\VISUAL STUDIO 2010\PROJECTS\BAILIFFALLOCATION\BAILIFFALLOCATION\FRMBAILIFFSUMMARY.RESX|H:\VISUAL STUDIO 2010\PROJECTS\BAILIFFALLOCATION\BAILIFFALLOCATION\FRMCASESUMMARY.RESX|H:\VISUAL STUDIO 2010\PROJECTS\BAILIFFALLOCATION\BAILIFFALLOCATION\FRMMAP.RESX|H:\VISUAL STUDIO 2010\PROJECTS\BAILIFFALLOCATION\BAILIFFALLOCATION\FRMSPLASHSCREEN.RESX|H:\VISUAL STUDIO 2010\PROJECTS\BAILIFFALLOCATION\BAILIFFALLOCATION\MY PROJECT\RESOURCES.RESX
#Command: "H:\Visual Studio 2010\Projects\BailiffAllocation\BailiffAllocation\bin\Debug\BailiffAllocation.vshost.exe" 
^H:\VISUAL STUDIO 2010\PROJECTS\BAILIFFALLOCATION\BAILIFFALLOCATION\DIABAILIFF.RESX|H:\VISUAL STUDIO 2010\PROJECTS\BAILIFFALLOCATION\BAILIFFALLOCATION\DIACASEDETAIL.RESX|H:\VISUAL STUDIO 2010\PROJECTS\BAILIFFALLOCATION\BAILIFFALLOCATION\DIACLIENTALLOCATIONLEVELS.RESX|H:\VISUAL STUDIO 2010\PROJECTS\BAILIFFALLOCATION\BAILIFFALLOCATION\FRMBAILIFFSUMMARY.RESX|H:\VISUAL STUDIO 2010\PROJECTS\BAILIFFALLOCATION\BAILIFFALLOCATION\FRMCASESUMMARY.RESX|H:\VISUAL STUDIO 2010\PROJECTS\BAILIFFALLOCATION\BAILIFFALLOCATION\FRMMAP.RESX|H:\VISUAL STUDIO 2010\PROJECTS\BAILIFFALLOCATION\BAILIFFALLOCATION\FRMSPLASHSCREEN.RESX|H:\VISUAL STUDIO 2010\PROJECTS\BAILIFFALLOCATION\BAILIFFALLOCATION\MY PROJECT\RESOURCES.RESX
#Command: "H:\Visual Studio 2010\Projects\BailiffAllocation\BailiffAllocation\bin\Debug\BailiffAllocation.vshost.exe" 
^H:\VISUAL STUDIO 2010\PROJECTS\BAILIFFALLOCATION\BAILIFFALLOCATION\DIABAILIFF.RESX|H:\VISUAL STUDIO 2010\PROJECTS\BAILIFFALLOCATION\BAILIFFALLOCATION\DIACASEDETAIL.RESX|H:\VISUAL STUDIO 2010\PROJECTS\BAILIFFALLOCATION\BAILIFFALLOCATION\DIACLIENTALLOCATIONLEVELS.RESX|H:\VISUAL STUDIO 2010\PROJECTS\BAILIFFALLOCATION\BAILIFFALLOCATION\FRMBAILIFFSUMMARY.RESX|H:\VISUAL STUDIO 2010\PROJECTS\BAILIFFALLOCATION\BAILIFFALLOCATION\FRMCASESUMMARY.RESX|H:\VISUAL STUDIO 2010\PROJECTS\BAILIFFALLOCATION\BAILIFFALLOCATION\FRMMAP.RESX|H:\VISUAL STUDIO 2010\PROJECTS\BAILIFFALLOCATION\BAILIFFALLOCATION\FRMSPLASHSCREEN.RESX|H:\VISUAL STUDIO 2010\PROJECTS\BAILIFFALLOCATION\BAILIFFALLOCATION\MY PROJECT\RESOURCES.RESX
