^X:\SOFTWARE DEVELOPMENT (.NET VS2010)\ICOTIFFRENAME\ICOTIFFRENAME\FORM1.RESX
^X:\SOFTWARE DEVELOPMENT (.NET VS2010)\ICOTIFFRENAME\ICOTIFFRENAME\FRMSPLASHSCREEN.RESX
C:\WINDOWS\ASSEMBLY\PUBPOL16.DAT
^X:\SOFTWARE DEVELOPMENT (.NET VS2010)\ICOTIFFRENAME\ICOTIFFRENAME\MY PROJECT\RESOURCES.RESX
