^X:\SOFTWARE DEVELOPMENT (.NET VS2010)\ARROWPHONELOAD\ARROWPHONELOAD\FRMMAIN.RESX|X:\SOFTWARE DEVELOPMENT (.NET VS2010)\ARROWPHONELOAD\ARROWPHONELOAD\FRMSPLASHSCREEN.RESX|X:\SOFTWARE DEVELOPMENT (.NET VS2010)\ARROWPHONELOAD\ARROWPHONELOAD\MY PROJECT\RESOURCES.RESX
X:\SOFTWARE DEVELOPMENT (.NET VS2010)\ARROWPHONELOAD\ARROWPHONELOAD\OBJ\X86\DEBUG\ARROWPHONELOAD.FRMMAIN.RESOURCES
X:\SOFTWARE DEVELOPMENT (.NET VS2010)\ARROWPHONELOAD\ARROWPHONELOAD\OBJ\X86\DEBUG\ARROWPHONELOAD.FRMSPLASHSCREEN.RESOURCES
X:\SOFTWARE DEVELOPMENT (.NET VS2010)\ARROWPHONELOAD\ARROWPHONELOAD\OBJ\X86\DEBUG\ARROWPHONELOAD.RESOURCES.RESOURCES
